{
  "apiVersion": "1",
  "version": "1",
  "provider": {
    "name": "Logicline GmbH"
  },
  "isolation": "PER_TENANT",
  "scale": "NONE",
  "resources": {
    "cpu": "1",
    "memory": "2000M"
  },
  "requiredRoles": [
    "ROLE_INVENTORY_ADMIN",
    "ROLE_DEVICE_CONTROL_ADMIN",
    "ROLE_DEVICE_CONTROL_READ",
    "ROLE_INVENTORY_READ",
    "ROLE_ACCOUNT_ADMIN",
    "ROLE_EVENT_ADMIN",
    "ROLE_EVENT_READ",
    "ROLE_ALARM_ADMIN",
    "ROLE_MEASUREMENT_ADMIN",
    "ROLE_USER_MANAGEMENT_READ",
    "ROLE_APPLICATION_MANAGEMENT_ADMIN",
    "ROLE_IDENTITY_READ"
  ],
  "roles": []
}

